{
    "results": [
        {
            "popularity": 2235.816,
            "vote_count": 34,
            "video": false,
            "poster_path": "\/ugZW8ocsrfgI95pnQ7wrmKDxIe.jpg",
            "id": 724989,
            "adult": false,
            "backdrop_path": "\/86L8wqGMDbwURPni2t7FQ0nDjsH.jpg",
            "original_language": "en",
            "original_title": "Hard Kill",
            "genre_ids": [
                28,
                53
            ],
            "title": "Hard Kill",
            "vote_average": 4.5,
            "overview": "The work of billionaire tech CEO Donovan Chalmers is so valuable that he hires mercenaries to protect it, and a terrorist group kidnaps his daughter just to get it.",
            "release_date": "2020-10-23"
        },
        {
            "popularity": 2227.936,
            "vote_count": 343,
            "video": false,
            "poster_path": "\/betExZlgK0l7CZ9CsCBVcwO1OjL.jpg",
            "id": 531219,
            "adult": false,
            "backdrop_path": "\/8rIoyM6zYXJNjzGseT3MRusMPWl.jpg",
            "original_language": "en",
            "original_title": "Roald Dahl's The Witches",
            "genre_ids": [
                14,
                10751,
                12,
                35,
                27
            ],
            "title": "Roald Dahl's The Witches",
            "vote_average": 7.2,
            "overview": "In late 1967, a young orphaned boy goes to live with his loving grandma in the rural Alabama town of Demopolis. As the boy and his grandmother encounter some deceptively glamorous but thoroughly diabolical witches, she wisely whisks him away to a seaside resort. Regrettably, they arrive at precisely the same time that the world's Grand High Witch has gathered.",
            "release_date": "2020-10-26"
        },
        {
            "popularity": 1731.044,
            "vote_count": 207,
            "video": false,
            "poster_path": "\/7D430eqZj8y3oVkLFfsWXGRcpEG.jpg",
            "id": 528085,
            "adult": false,
            "backdrop_path": "\/5UkzNSOK561c2QRy2Zr4AkADzLT.jpg",
            "original_language": "en",
            "original_title": "2067",
            "genre_ids": [
                18,
                878,
                53
            ],
            "title": "2067",
            "vote_average": 5.3,
            "overview": "A lowly utility worker is called to the future by a mysterious radio signal, he must leave his dying wife to embark on a journey that will force him to face his deepest fears in an attempt to change the fabric of reality and save humankind from its greatest environmental crisis yet.",
            "release_date": "2020-10-01"
        },
        {
            "popularity": 962.077,
            "vote_count": 24,
            "video": false,
            "poster_path": "\/h8Rb9gBr48ODIwYUttZNYeMWeUU.jpg",
            "id": 635302,
            "adult": false,
            "backdrop_path": "\/xoqr4dMbRJnzuhsWDF3XNHQwJ9x.jpg",
            "original_language": "ja",
            "original_title": "\u5287\u5834\u7248\u300c\u9b3c\u6ec5\u306e\u5203\u300d\u7121\u9650\u5217\u8eca\u7de8",
            "genre_ids": [
                16,
                28,
                36,
                12,
                14,
                18
            ],
            "title": "Demon Slayer: Kimetsu no Yaiba - The Movie: Mugen Train",
            "vote_average": 6.8,
            "overview": "Tanjir\u014d Kamado, joined with Inosuke Hashibira, a boy raised by boars who wears a boar's head, and Zenitsu Agatsuma, a scared boy who reveals his true power when he sleeps, boards the Infinity Train on a new mission with the Fire Hashira, Ky\u014djur\u014d Rengoku, to defeat a demon who has been tormenting the people and killing the demon slayers who oppose it!",
            "release_date": "2020-10-16"
        },
        {
            "popularity": 807.649,
            "vote_count": 221,
            "video": false,
            "poster_path": "\/r4Lm1XKP0VsTgHX4LG4syAwYA2I.jpg",
            "id": 590223,
            "adult": false,
            "backdrop_path": "\/lA5fOBqTOQBQ1s9lEYYPmNXoYLi.jpg",
            "original_language": "en",
            "original_title": "Love and Monsters",
            "genre_ids": [
                28,
                12,
                35,
                878
            ],
            "title": "Love and Monsters",
            "vote_average": 7.7,
            "overview": "Seven years after the Monsterpocalypse, Joel Dawson, along with the rest of humanity, has been living underground ever since giant creatures took control of the land. After reconnecting over radio with his high school girlfriend Aimee, who is now 80 miles away at a coastal colony, Joel begins to fall for her again. As Joel realizes that there\u2019s nothing left for him underground, he decides against all logic to venture out to Aimee, despite all the dangerous monsters that stand in his way.",
            "release_date": "2020-10-16"
        },
        {
            "popularity": 651.626,
            "vote_count": 327,
            "video": false,
            "poster_path": "\/uOw5JD8IlD546feZ6oxbIjvN66P.jpg",
            "id": 718444,
            "adult": false,
            "backdrop_path": "\/x4UkhIQuHIJyeeOTdcbZ3t3gBSa.jpg",
            "original_language": "en",
            "original_title": "Rogue",
            "genre_ids": [
                28,
                12,
                18,
                53
            ],
            "title": "Rogue",
            "vote_average": 5.8,
            "overview": "Battle-hardened O\u2019Hara leads a lively mercenary team of soldiers on a daring mission: rescue hostages from their captors in remote Africa. But as the mission goes awry and the team is stranded, O\u2019Hara\u2019s squad must face a bloody, brutal encounter with a gang of rebels.",
            "release_date": "2020-08-20"
        },
        {
            "popularity": 597.82,
            "vote_count": 157,
            "video": false,
            "poster_path": "\/6CoRTJTmijhBLJTUNoVSUNxZMEI.jpg",
            "id": 694919,
            "adult": false,
            "backdrop_path": "\/pq0JSpwyT2URytdFG0euztQPAyR.jpg",
            "original_language": "en",
            "original_title": "Money Plane",
            "genre_ids": [
                28
            ],
            "title": "Money Plane",
            "vote_average": 5.9,
            "overview": "A professional thief with $40 million in debt and his family's life on the line must commit one final heist - rob a futuristic airborne casino filled with the world's most dangerous criminals.",
            "release_date": "2020-09-29"
        },
        {
            "popularity": 604.92,
            "vote_count": 1141,
            "video": false,
            "poster_path": "\/kiX7UYfOpYrMFSAGbI6j1pFkLzQ.jpg",
            "id": 613504,
            "adult": false,
            "backdrop_path": "\/6hgItrYQEG33y0I7yP2SRl2ei4w.jpg",
            "original_language": "en",
            "original_title": "After We Collided",
            "genre_ids": [
                18,
                10749
            ],
            "title": "After We Collided",
            "vote_average": 7.3,
            "overview": "Tessa finds herself struggling with her complicated relationship with Hardin; she faces a dilemma that could change their lives forever.",
            "release_date": "2020-09-02"
        },
        {
            "popularity": 618.416,
            "vote_count": 546,
            "video": false,
            "poster_path": "\/qzA87Wf4jo1h8JMk9GilyIYvwsA.jpg",
            "id": 539885,
            "adult": false,
            "backdrop_path": "\/54yOImQgj8i85u9hxxnaIQBRUuo.jpg",
            "original_language": "en",
            "original_title": "Ava",
            "genre_ids": [
                28,
                80,
                18,
                53
            ],
            "title": "Ava",
            "vote_average": 5.8,
            "overview": "A black ops assassin is forced to fight for her own survival after a job goes dangerously wrong.",
            "release_date": "2020-07-02"
        },
        {
            "popularity": 610.495,
            "vote_count": 683,
            "video": false,
            "poster_path": "\/sy6DvAu72kjoseZEjocnm2ZZ09i.jpg",
            "id": 581392,
            "adult": false,
            "backdrop_path": "\/2nFzxaAK7JIsk6l7qZ8rFBsa3yW.jpg",
            "original_language": "ko",
            "original_title": "\ubc18\ub3c4",
            "genre_ids": [
                28,
                27,
                53
            ],
            "title": "Peninsula",
            "vote_average": 7,
            "overview": "A soldier and his team battle hordes of post-apocalyptic zombies in the wastelands of the Korean Peninsula.",
            "release_date": "2020-07-15"
        },
        {
            "popularity": 431.05,
            "vote_count": 57,
            "video": false,
            "poster_path": "\/n9OzZmPMnVrV0cMQ7amX0DtBkQH.jpg",
            "id": 509635,
            "adult": false,
            "backdrop_path": "\/obExOU9qDnMcxvWPumoD14oxup5.jpg",
            "original_language": "en",
            "original_title": "Alone",
            "genre_ids": [
                53
            ],
            "title": "Alone",
            "vote_average": 6.2,
            "overview": "A recently widowed traveler is kidnapped by a cold blooded killer, only to escape into the wilderness where she is forced to battle against the elements as her pursuer closes in on her.",
            "release_date": "2020-09-10"
        },
        {
            "popularity": 560.491,
            "vote_count": 175,
            "video": false,
            "poster_path": "\/lQfdytwN7eh0tXWjIiMceFdBBvD.jpg",
            "id": 560050,
            "adult": false,
            "backdrop_path": "\/htBUhLSS7FfHtydgYxUWjL3J1Q1.jpg",
            "original_language": "en",
            "original_title": "Over the Moon",
            "genre_ids": [
                16,
                12,
                10751,
                14
            ],
            "title": "Over the Moon",
            "vote_average": 8,
            "overview": "A girl builds a rocket to travel to the moon in hopes of meeting the legendary Moon Goddess.",
            "release_date": "2020-10-16"
        },
        {
            "popularity": 314.416,
            "vote_count": 161,
            "video": false,
            "poster_path": "\/3eg0kGC2Xh0vhydJHO37Sp4cmMt.jpg",
            "id": 531499,
            "adult": false,
            "backdrop_path": "\/zogWnCSztU8xvabaepQnAwsOtOt.jpg",
            "original_language": "en",
            "original_title": "The Tax Collector",
            "genre_ids": [
                28,
                80,
                18
            ],
            "title": "The Tax Collector",
            "vote_average": 6.1,
            "overview": "David Cuevas is a family man who works as a gangland tax collector for high ranking Los Angeles gang members. He makes collections across the city with his partner Creeper making sure people pay up or will see retaliation. An old threat returns to Los Angeles that puts everything David loves in harm\u2019s way.",
            "release_date": "2020-08-07"
        },
        {
            "popularity": 294.587,
            "vote_count": 95,
            "video": false,
            "poster_path": "\/ltyARDw2EFXZ2H2ERnlEctXPioP.jpg",
            "id": 425001,
            "adult": false,
            "backdrop_path": "\/4gKyQ1McHa8ZKDsYoyKQSevF01J.jpg",
            "original_language": "en",
            "original_title": "The War with Grandpa",
            "genre_ids": [
                35,
                10751,
                18
            ],
            "title": "The War with Grandpa",
            "vote_average": 6.2,
            "overview": "Sixth-grader Peter is pretty much your average kid\u2014he likes gaming, hanging with his friends and his beloved pair of Air Jordans. But when his recently widowed grandfather Ed  moves in with Peter\u2019s family, the boy is forced to give up his most prized possession of all, his bedroom. Unwilling to let such an injustice stand, Peter devises a series of increasingly elaborate pranks to drive out the interloper, but Grandpa Ed won\u2019t go without a fight.",
            "release_date": "2020-08-27"
        },
        {
            "popularity": 264.734,
            "vote_count": 2,
            "video": false,
            "poster_path": "\/zamW7KUYYtAdxMtTuCzukRjHTPO.jpg",
            "id": 748224,
            "adult": false,
            "backdrop_path": "\/flNp7NdzBC1UGctzuubQveuVSF5.jpg",
            "original_language": "en",
            "original_title": "Reaptown",
            "genre_ids": [
                27
            ],
            "title": "Reaptown",
            "vote_average": 6,
            "overview": "In this supernatural horror film, Carrie Baldwin is freed from prison under the conditions of a work-release program in Reaptown, Nevada. As she struggles to find her missing sister while working the night shift as a security guard for the Reaptown Railway Museum, Carrie soon finds herself in the presence of evil. Could the Railway hold the clues to her sister's mysterious disappearance?",
            "release_date": "2020-09-28"
        },
        {
            "popularity": 395.059,
            "vote_count": 0,
            "video": false,
            "poster_path": "\/j8D3jXHtA9cNb4epzvmA6hymKQ4.jpg",
            "id": 499338,
            "adult": false,
            "backdrop_path": "\/fUxq6ilPW01roOpqB5g9SOS3zZv.jpg",
            "original_language": "en",
            "original_title": "I Believe",
            "genre_ids": [
                10751
            ],
            "title": "I Believe",
            "vote_average": 0,
            "overview": "A 9 year old boy experiences God's power in a supernatural way.",
            "release_date": "2020-11-05"
        },
        {
            "popularity": 320.602,
            "vote_count": 1242,
            "video": false,
            "poster_path": "\/7W0G3YECgDAfnuiHG91r8WqgIOe.jpg",
            "id": 446893,
            "adult": false,
            "backdrop_path": "\/qsxhnirlp7y4Ae9bd11oYJSX59j.jpg",
            "original_language": "en",
            "original_title": "Trolls World Tour",
            "genre_ids": [
                12,
                16,
                35,
                14,
                10402,
                10751
            ],
            "title": "Trolls World Tour",
            "vote_average": 7.6,
            "overview": "Queen Poppy and Branch make a surprising discovery \u2014 there are other Troll worlds beyond their own, and their distinct differences create big clashes between these various tribes. When a mysterious threat puts all of the Trolls across the land in danger, Poppy, Branch, and their band of friends must embark on an epic quest to create harmony among the feuding Trolls to unite them against certain doom.",
            "release_date": "2020-03-12"
        },
        {
            "popularity": 371.043,
            "vote_count": 71,
            "video": false,
            "poster_path": "\/zfdhsR3Y3xw42OHrMpi0oBw0Uk8.jpg",
            "id": 741074,
            "adult": false,
            "backdrop_path": "\/DA7gzvlBoxMNL0XmGgTZOyv67P.jpg",
            "original_language": "en",
            "original_title": "Once Upon a Snowman",
            "genre_ids": [
                16,
                35,
                14,
                10751
            ],
            "title": "Once Upon a Snowman",
            "vote_average": 7.5,
            "overview": "The previously untold origins of Olaf, the innocent and insightful, summer-loving snowman are revealed as we follow Olaf\u2019s first steps as he comes to life and searches for his identity in the snowy mountains outside Arendelle.",
            "release_date": "2020-10-23"
        },
        {
            "popularity": 270.16,
            "vote_count": 87,
            "video": false,
            "poster_path": "\/4BgSWFMW2MJ0dT5metLzsRWO7IJ.jpg",
            "id": 726739,
            "adult": false,
            "backdrop_path": "\/t22fWbzdnThPseipsdpwgdPOPCR.jpg",
            "original_language": "en",
            "original_title": "Cats & Dogs 3: Paws Unite",
            "genre_ids": [
                28,
                35
            ],
            "title": "Cats & Dogs 3: Paws Unite",
            "vote_average": 6.5,
            "overview": "It's been ten years since the creation of the Great Truce, an elaborate joint-species surveillance system designed and monitored by cats and dogs to keep the peace when conflicts arise. But when a tech-savvy villain hacks into wireless networks to use frequencies only heard by cats and dogs, he manipulates them into conflict and the worldwide battle between cats and dogs is BACK ON. Now, a team of inexperienced and untested agents will have to use their old-school animal instincts to restore order and peace between cats and dogs everywhere.",
            "release_date": "2020-10-02"
        },
        {
            "popularity": 218.664,
            "vote_count": 247,
            "video": false,
            "poster_path": "\/bSKVKcCXdKxkbgf0LL8lBTPG02e.jpg",
            "id": 505379,
            "adult": false,
            "backdrop_path": "\/rVkptIl9QkhpB5xM6BnUAHOJ43b.jpg",
            "original_language": "en",
            "original_title": "Rebecca",
            "genre_ids": [
                18,
                9648,
                53,
                10749
            ],
            "title": "Rebecca",
            "vote_average": 6.4,
            "overview": "After a whirlwind romance with a wealthy widower, a na\u00efve bride moves to his family estate but can't escape the haunting shadow of his late wife.",
            "release_date": "2020-10-16"
        }
    ],
    "page": 1,
    "total_results": 1473,
    "dates": {
        "maximum": "2020-11-05",
        "minimum": "2020-09-18"
    },
    "total_pages": 74
}